G04 #@! TF.GenerationSoftware,KiCad,Pcbnew,(5.1.4)-1*
G04 #@! TF.CreationDate,2019-12-13T15:15:59+01:00*
G04 #@! TF.ProjectId,KRS-XL_CB6-9-12,4b52532d-584c-45f4-9342-362d392d3132,V01.00*
G04 #@! TF.SameCoordinates,Original*
G04 #@! TF.FileFunction,Legend,Top*
G04 #@! TF.FilePolarity,Positive*
%FSLAX46Y46*%
G04 Gerber Fmt 4.6, Leading zero omitted, Abs format (unit mm)*
G04 Created by KiCad (PCBNEW (5.1.4)-1) date 2019-12-13 15:16:00*
%MOMM*%
%LPD*%
G04 APERTURE LIST*
%ADD10C,0.150000*%
%ADD11C,0.100000*%
%ADD12C,0.120000*%
G04 APERTURE END LIST*
D10*
X153185761Y-88804000D02*
X153233380Y-88899238D01*
X153233380Y-89089714D01*
X153185761Y-89184952D01*
X153138142Y-89232571D01*
X153042904Y-89280190D01*
X152757190Y-89280190D01*
X152661952Y-89232571D01*
X152614333Y-89184952D01*
X152566714Y-89089714D01*
X152566714Y-88899238D01*
X152614333Y-88804000D01*
X152566714Y-87946857D02*
X153233380Y-87946857D01*
X152566714Y-88375428D02*
X153090523Y-88375428D01*
X153185761Y-88327809D01*
X153233380Y-88232571D01*
X153233380Y-88089714D01*
X153185761Y-87994476D01*
X153138142Y-87946857D01*
X152566714Y-87613523D02*
X152566714Y-87232571D01*
X152233380Y-87470666D02*
X153090523Y-87470666D01*
X153185761Y-87423047D01*
X153233380Y-87327809D01*
X153233380Y-87232571D01*
X153233380Y-86137333D02*
X152233380Y-86137333D01*
X153233380Y-85708761D02*
X152709571Y-85708761D01*
X152614333Y-85756380D01*
X152566714Y-85851619D01*
X152566714Y-85994476D01*
X152614333Y-86089714D01*
X152661952Y-86137333D01*
X153185761Y-84851619D02*
X153233380Y-84946857D01*
X153233380Y-85137333D01*
X153185761Y-85232571D01*
X153090523Y-85280190D01*
X152709571Y-85280190D01*
X152614333Y-85232571D01*
X152566714Y-85137333D01*
X152566714Y-84946857D01*
X152614333Y-84851619D01*
X152709571Y-84804000D01*
X152804809Y-84804000D01*
X152900047Y-85280190D01*
X153233380Y-84375428D02*
X152566714Y-84375428D01*
X152757190Y-84375428D02*
X152661952Y-84327809D01*
X152614333Y-84280190D01*
X152566714Y-84184952D01*
X152566714Y-84089714D01*
X153185761Y-83375428D02*
X153233380Y-83470666D01*
X153233380Y-83661142D01*
X153185761Y-83756380D01*
X153090523Y-83804000D01*
X152709571Y-83804000D01*
X152614333Y-83756380D01*
X152566714Y-83661142D01*
X152566714Y-83470666D01*
X152614333Y-83375428D01*
X152709571Y-83327809D01*
X152804809Y-83327809D01*
X152900047Y-83804000D01*
X152566714Y-82280190D02*
X152566714Y-81899238D01*
X153233380Y-82137333D02*
X152376238Y-82137333D01*
X152281000Y-82089714D01*
X152233380Y-81994476D01*
X152233380Y-81899238D01*
X153233380Y-81423047D02*
X153185761Y-81518285D01*
X153138142Y-81565904D01*
X153042904Y-81613523D01*
X152757190Y-81613523D01*
X152661952Y-81565904D01*
X152614333Y-81518285D01*
X152566714Y-81423047D01*
X152566714Y-81280190D01*
X152614333Y-81184952D01*
X152661952Y-81137333D01*
X152757190Y-81089714D01*
X153042904Y-81089714D01*
X153138142Y-81137333D01*
X153185761Y-81184952D01*
X153233380Y-81280190D01*
X153233380Y-81423047D01*
X153233380Y-80661142D02*
X152566714Y-80661142D01*
X152757190Y-80661142D02*
X152661952Y-80613523D01*
X152614333Y-80565904D01*
X152566714Y-80470666D01*
X152566714Y-80375428D01*
X152233380Y-78851619D02*
X152233380Y-79042095D01*
X152281000Y-79137333D01*
X152328619Y-79184952D01*
X152471476Y-79280190D01*
X152661952Y-79327809D01*
X153042904Y-79327809D01*
X153138142Y-79280190D01*
X153185761Y-79232571D01*
X153233380Y-79137333D01*
X153233380Y-78946857D01*
X153185761Y-78851619D01*
X153138142Y-78804000D01*
X153042904Y-78756380D01*
X152804809Y-78756380D01*
X152709571Y-78804000D01*
X152661952Y-78851619D01*
X152614333Y-78946857D01*
X152614333Y-79137333D01*
X152661952Y-79232571D01*
X152709571Y-79280190D01*
X152804809Y-79327809D01*
X152233380Y-77708761D02*
X152233380Y-77137333D01*
X153233380Y-77423047D02*
X152233380Y-77423047D01*
X152709571Y-76804000D02*
X152709571Y-76470666D01*
X153233380Y-76327809D02*
X153233380Y-76804000D01*
X152233380Y-76804000D01*
X152233380Y-76327809D01*
X207160761Y-88804000D02*
X207208380Y-88899238D01*
X207208380Y-89089714D01*
X207160761Y-89184952D01*
X207113142Y-89232571D01*
X207017904Y-89280190D01*
X206732190Y-89280190D01*
X206636952Y-89232571D01*
X206589333Y-89184952D01*
X206541714Y-89089714D01*
X206541714Y-88899238D01*
X206589333Y-88804000D01*
X206541714Y-87946857D02*
X207208380Y-87946857D01*
X206541714Y-88375428D02*
X207065523Y-88375428D01*
X207160761Y-88327809D01*
X207208380Y-88232571D01*
X207208380Y-88089714D01*
X207160761Y-87994476D01*
X207113142Y-87946857D01*
X206541714Y-87613523D02*
X206541714Y-87232571D01*
X206208380Y-87470666D02*
X207065523Y-87470666D01*
X207160761Y-87423047D01*
X207208380Y-87327809D01*
X207208380Y-87232571D01*
X207208380Y-86137333D02*
X206208380Y-86137333D01*
X207208380Y-85708761D02*
X206684571Y-85708761D01*
X206589333Y-85756380D01*
X206541714Y-85851619D01*
X206541714Y-85994476D01*
X206589333Y-86089714D01*
X206636952Y-86137333D01*
X207160761Y-84851619D02*
X207208380Y-84946857D01*
X207208380Y-85137333D01*
X207160761Y-85232571D01*
X207065523Y-85280190D01*
X206684571Y-85280190D01*
X206589333Y-85232571D01*
X206541714Y-85137333D01*
X206541714Y-84946857D01*
X206589333Y-84851619D01*
X206684571Y-84804000D01*
X206779809Y-84804000D01*
X206875047Y-85280190D01*
X207208380Y-84375428D02*
X206541714Y-84375428D01*
X206732190Y-84375428D02*
X206636952Y-84327809D01*
X206589333Y-84280190D01*
X206541714Y-84184952D01*
X206541714Y-84089714D01*
X207160761Y-83375428D02*
X207208380Y-83470666D01*
X207208380Y-83661142D01*
X207160761Y-83756380D01*
X207065523Y-83804000D01*
X206684571Y-83804000D01*
X206589333Y-83756380D01*
X206541714Y-83661142D01*
X206541714Y-83470666D01*
X206589333Y-83375428D01*
X206684571Y-83327809D01*
X206779809Y-83327809D01*
X206875047Y-83804000D01*
X206541714Y-82280190D02*
X206541714Y-81899238D01*
X207208380Y-82137333D02*
X206351238Y-82137333D01*
X206256000Y-82089714D01*
X206208380Y-81994476D01*
X206208380Y-81899238D01*
X207208380Y-81423047D02*
X207160761Y-81518285D01*
X207113142Y-81565904D01*
X207017904Y-81613523D01*
X206732190Y-81613523D01*
X206636952Y-81565904D01*
X206589333Y-81518285D01*
X206541714Y-81423047D01*
X206541714Y-81280190D01*
X206589333Y-81184952D01*
X206636952Y-81137333D01*
X206732190Y-81089714D01*
X207017904Y-81089714D01*
X207113142Y-81137333D01*
X207160761Y-81184952D01*
X207208380Y-81280190D01*
X207208380Y-81423047D01*
X207208380Y-80661142D02*
X206541714Y-80661142D01*
X206732190Y-80661142D02*
X206636952Y-80613523D01*
X206589333Y-80565904D01*
X206541714Y-80470666D01*
X206541714Y-80375428D01*
X207208380Y-79232571D02*
X207208380Y-79042095D01*
X207160761Y-78946857D01*
X207113142Y-78899238D01*
X206970285Y-78804000D01*
X206779809Y-78756380D01*
X206398857Y-78756380D01*
X206303619Y-78804000D01*
X206256000Y-78851619D01*
X206208380Y-78946857D01*
X206208380Y-79137333D01*
X206256000Y-79232571D01*
X206303619Y-79280190D01*
X206398857Y-79327809D01*
X206636952Y-79327809D01*
X206732190Y-79280190D01*
X206779809Y-79232571D01*
X206827428Y-79137333D01*
X206827428Y-78946857D01*
X206779809Y-78851619D01*
X206732190Y-78804000D01*
X206636952Y-78756380D01*
X206208380Y-77708761D02*
X206208380Y-77137333D01*
X207208380Y-77423047D02*
X206208380Y-77423047D01*
X206684571Y-76804000D02*
X206684571Y-76470666D01*
X207208380Y-76327809D02*
X207208380Y-76804000D01*
X206208380Y-76804000D01*
X206208380Y-76327809D01*
X205500000Y-50000000D02*
X205500000Y-90600000D01*
X51516595Y-87765380D02*
X51516595Y-86765380D01*
X52088023Y-87765380D02*
X51659452Y-87193952D01*
X52088023Y-86765380D02*
X51516595Y-87336809D01*
X53088023Y-87765380D02*
X52754690Y-87289190D01*
X52516595Y-87765380D02*
X52516595Y-86765380D01*
X52897547Y-86765380D01*
X52992785Y-86813000D01*
X53040404Y-86860619D01*
X53088023Y-86955857D01*
X53088023Y-87098714D01*
X53040404Y-87193952D01*
X52992785Y-87241571D01*
X52897547Y-87289190D01*
X52516595Y-87289190D01*
X53468976Y-87717761D02*
X53611833Y-87765380D01*
X53849928Y-87765380D01*
X53945166Y-87717761D01*
X53992785Y-87670142D01*
X54040404Y-87574904D01*
X54040404Y-87479666D01*
X53992785Y-87384428D01*
X53945166Y-87336809D01*
X53849928Y-87289190D01*
X53659452Y-87241571D01*
X53564214Y-87193952D01*
X53516595Y-87146333D01*
X53468976Y-87051095D01*
X53468976Y-86955857D01*
X53516595Y-86860619D01*
X53564214Y-86813000D01*
X53659452Y-86765380D01*
X53897547Y-86765380D01*
X54040404Y-86813000D01*
X54468976Y-87384428D02*
X55230880Y-87384428D01*
X55611833Y-86765380D02*
X56278500Y-87765380D01*
X56278500Y-86765380D02*
X55611833Y-87765380D01*
X57135642Y-87765380D02*
X56659452Y-87765380D01*
X56659452Y-86765380D01*
X58802309Y-87670142D02*
X58754690Y-87717761D01*
X58611833Y-87765380D01*
X58516595Y-87765380D01*
X58373738Y-87717761D01*
X58278500Y-87622523D01*
X58230880Y-87527285D01*
X58183261Y-87336809D01*
X58183261Y-87193952D01*
X58230880Y-87003476D01*
X58278500Y-86908238D01*
X58373738Y-86813000D01*
X58516595Y-86765380D01*
X58611833Y-86765380D01*
X58754690Y-86813000D01*
X58802309Y-86860619D01*
X59564214Y-87241571D02*
X59707071Y-87289190D01*
X59754690Y-87336809D01*
X59802309Y-87432047D01*
X59802309Y-87574904D01*
X59754690Y-87670142D01*
X59707071Y-87717761D01*
X59611833Y-87765380D01*
X59230880Y-87765380D01*
X59230880Y-86765380D01*
X59564214Y-86765380D01*
X59659452Y-86813000D01*
X59707071Y-86860619D01*
X59754690Y-86955857D01*
X59754690Y-87051095D01*
X59707071Y-87146333D01*
X59659452Y-87193952D01*
X59564214Y-87241571D01*
X59230880Y-87241571D01*
X60659452Y-86765380D02*
X60468976Y-86765380D01*
X60373738Y-86813000D01*
X60326119Y-86860619D01*
X60230880Y-87003476D01*
X60183261Y-87193952D01*
X60183261Y-87574904D01*
X60230880Y-87670142D01*
X60278500Y-87717761D01*
X60373738Y-87765380D01*
X60564214Y-87765380D01*
X60659452Y-87717761D01*
X60707071Y-87670142D01*
X60754690Y-87574904D01*
X60754690Y-87336809D01*
X60707071Y-87241571D01*
X60659452Y-87193952D01*
X60564214Y-87146333D01*
X60373738Y-87146333D01*
X60278500Y-87193952D01*
X60230880Y-87241571D01*
X60183261Y-87336809D01*
X61183261Y-87384428D02*
X61945166Y-87384428D01*
X62468976Y-87765380D02*
X62659452Y-87765380D01*
X62754690Y-87717761D01*
X62802309Y-87670142D01*
X62897547Y-87527285D01*
X62945166Y-87336809D01*
X62945166Y-86955857D01*
X62897547Y-86860619D01*
X62849928Y-86813000D01*
X62754690Y-86765380D01*
X62564214Y-86765380D01*
X62468976Y-86813000D01*
X62421357Y-86860619D01*
X62373738Y-86955857D01*
X62373738Y-87193952D01*
X62421357Y-87289190D01*
X62468976Y-87336809D01*
X62564214Y-87384428D01*
X62754690Y-87384428D01*
X62849928Y-87336809D01*
X62897547Y-87289190D01*
X62945166Y-87193952D01*
X63373738Y-87384428D02*
X64135642Y-87384428D01*
X65135642Y-87765380D02*
X64564214Y-87765380D01*
X64849928Y-87765380D02*
X64849928Y-86765380D01*
X64754690Y-86908238D01*
X64659452Y-87003476D01*
X64564214Y-87051095D01*
X65516595Y-86860619D02*
X65564214Y-86813000D01*
X65659452Y-86765380D01*
X65897547Y-86765380D01*
X65992785Y-86813000D01*
X66040404Y-86860619D01*
X66088023Y-86955857D01*
X66088023Y-87051095D01*
X66040404Y-87193952D01*
X65468976Y-87765380D01*
X66088023Y-87765380D01*
X51373738Y-88415380D02*
X51707071Y-89415380D01*
X52040404Y-88415380D01*
X52564214Y-88415380D02*
X52659452Y-88415380D01*
X52754690Y-88463000D01*
X52802309Y-88510619D01*
X52849928Y-88605857D01*
X52897547Y-88796333D01*
X52897547Y-89034428D01*
X52849928Y-89224904D01*
X52802309Y-89320142D01*
X52754690Y-89367761D01*
X52659452Y-89415380D01*
X52564214Y-89415380D01*
X52468976Y-89367761D01*
X52421357Y-89320142D01*
X52373738Y-89224904D01*
X52326119Y-89034428D01*
X52326119Y-88796333D01*
X52373738Y-88605857D01*
X52421357Y-88510619D01*
X52468976Y-88463000D01*
X52564214Y-88415380D01*
X53849928Y-89415380D02*
X53278500Y-89415380D01*
X53564214Y-89415380D02*
X53564214Y-88415380D01*
X53468976Y-88558238D01*
X53373738Y-88653476D01*
X53278500Y-88701095D01*
X54278500Y-89320142D02*
X54326119Y-89367761D01*
X54278500Y-89415380D01*
X54230880Y-89367761D01*
X54278500Y-89320142D01*
X54278500Y-89415380D01*
X54945166Y-88415380D02*
X55040404Y-88415380D01*
X55135642Y-88463000D01*
X55183261Y-88510619D01*
X55230880Y-88605857D01*
X55278500Y-88796333D01*
X55278500Y-89034428D01*
X55230880Y-89224904D01*
X55183261Y-89320142D01*
X55135642Y-89367761D01*
X55040404Y-89415380D01*
X54945166Y-89415380D01*
X54849928Y-89367761D01*
X54802309Y-89320142D01*
X54754690Y-89224904D01*
X54707071Y-89034428D01*
X54707071Y-88796333D01*
X54754690Y-88605857D01*
X54802309Y-88510619D01*
X54849928Y-88463000D01*
X54945166Y-88415380D01*
X55897547Y-88415380D02*
X55992785Y-88415380D01*
X56088023Y-88463000D01*
X56135642Y-88510619D01*
X56183261Y-88605857D01*
X56230880Y-88796333D01*
X56230880Y-89034428D01*
X56183261Y-89224904D01*
X56135642Y-89320142D01*
X56088023Y-89367761D01*
X55992785Y-89415380D01*
X55897547Y-89415380D01*
X55802309Y-89367761D01*
X55754690Y-89320142D01*
X55707071Y-89224904D01*
X55659452Y-89034428D01*
X55659452Y-88796333D01*
X55707071Y-88605857D01*
X55754690Y-88510619D01*
X55802309Y-88463000D01*
X55897547Y-88415380D01*
X151400000Y-50000000D02*
X151400000Y-90600000D01*
D11*
X192355000Y-78690000D02*
X191980000Y-78690000D01*
X192355000Y-78315000D02*
X192355000Y-78690000D01*
X186105000Y-78690000D02*
X186105000Y-78290000D01*
X186505000Y-78690000D02*
X186105000Y-78690000D01*
X192355000Y-72440000D02*
X191855000Y-72440000D01*
X192355000Y-72990000D02*
X192355000Y-72440000D01*
X185805000Y-72540000D02*
X184155000Y-72540000D01*
X185805000Y-72765000D02*
X185805000Y-72540000D01*
X186105000Y-72765000D02*
X185805000Y-72765000D01*
X186455000Y-72440000D02*
X186105000Y-72765000D01*
X186455000Y-72440000D02*
X186755000Y-72440000D01*
D12*
X79818000Y-85995000D02*
X81218000Y-85995000D01*
X81918000Y-86695000D02*
X81918000Y-87295000D01*
X81218000Y-87995000D02*
X79818000Y-87995000D01*
X79118000Y-87295000D02*
X79118000Y-86695000D01*
X79118000Y-86695000D02*
G75*
G02X79818000Y-85995000I700000J0D01*
G01*
X79818000Y-87995000D02*
G75*
G02X79118000Y-87295000I0J700000D01*
G01*
X81918000Y-87295000D02*
G75*
G02X81218000Y-87995000I-700000J0D01*
G01*
X81218000Y-85995000D02*
G75*
G02X81918000Y-86695000I0J-700000D01*
G01*
X75992000Y-83451000D02*
G75*
G02X76692000Y-84151000I0J-700000D01*
G01*
X74692000Y-84151000D02*
G75*
G02X75392000Y-83451000I700000J0D01*
G01*
X75392000Y-87551000D02*
G75*
G02X74692000Y-86851000I0J700000D01*
G01*
X76692000Y-86851000D02*
G75*
G02X75992000Y-87551000I-700000J0D01*
G01*
X76692000Y-84101000D02*
X76692000Y-86901000D01*
X75992000Y-87551000D02*
X75392000Y-87551000D01*
X74692000Y-86901000D02*
X74692000Y-84101000D01*
X75392000Y-83451000D02*
X75992000Y-83451000D01*
X74492000Y-84301000D02*
X74192000Y-84001000D01*
X74192000Y-84001000D02*
X74192000Y-84601000D01*
X74492000Y-84301000D02*
X74192000Y-84601000D01*
X104475000Y-89299000D02*
G75*
G02X103775000Y-88599000I0J700000D01*
G01*
X105775000Y-88599000D02*
G75*
G02X105075000Y-89299000I-700000J0D01*
G01*
X105075000Y-85199000D02*
G75*
G02X105775000Y-85899000I0J-700000D01*
G01*
X103775000Y-85899000D02*
G75*
G02X104475000Y-85199000I700000J0D01*
G01*
X103775000Y-88649000D02*
X103775000Y-85849000D01*
X104475000Y-85199000D02*
X105075000Y-85199000D01*
X105775000Y-85849000D02*
X105775000Y-88649000D01*
X105075000Y-89299000D02*
X104475000Y-89299000D01*
X105975000Y-88449000D02*
X106275000Y-88749000D01*
X106275000Y-88749000D02*
X106275000Y-88149000D01*
X105975000Y-88449000D02*
X106275000Y-88149000D01*
X113950000Y-90528000D02*
X113950000Y-50188000D01*
X181390000Y-90528000D02*
X113950000Y-90528000D01*
X181390000Y-50188000D02*
X181390000Y-90528000D01*
X113950000Y-50188000D02*
X181390000Y-50188000D01*
X113570000Y-57198000D02*
X113570000Y-62198000D01*
X121570000Y-88198000D02*
X121570000Y-52198000D01*
X173570000Y-88198000D02*
X121570000Y-88198000D01*
X173570000Y-52198000D02*
X173570000Y-88198000D01*
X121570000Y-52198000D02*
X173570000Y-52198000D01*
D11*
X150155000Y-81228400D02*
X150155000Y-81603400D01*
X149780000Y-81228400D02*
X150155000Y-81228400D01*
X150155000Y-87478400D02*
X149755000Y-87478400D01*
X150155000Y-87078400D02*
X150155000Y-87478400D01*
X143905000Y-81228400D02*
X143905000Y-81728400D01*
X144455000Y-81228400D02*
X143905000Y-81228400D01*
X144005000Y-87778400D02*
X144005000Y-89428400D01*
X144230000Y-87778400D02*
X144005000Y-87778400D01*
X144230000Y-87478400D02*
X144230000Y-87778400D01*
X143905000Y-87128400D02*
X144230000Y-87478400D01*
X143905000Y-87128400D02*
X143905000Y-86828400D01*
X123485000Y-81225000D02*
X123485000Y-81600000D01*
X123110000Y-81225000D02*
X123485000Y-81225000D01*
X123485000Y-87475000D02*
X123085000Y-87475000D01*
X123485000Y-87075000D02*
X123485000Y-87475000D01*
X117235000Y-81225000D02*
X117235000Y-81725000D01*
X117785000Y-81225000D02*
X117235000Y-81225000D01*
X117335000Y-87775000D02*
X117335000Y-89425000D01*
X117560000Y-87775000D02*
X117335000Y-87775000D01*
X117560000Y-87475000D02*
X117560000Y-87775000D01*
X117235000Y-87125000D02*
X117560000Y-87475000D01*
X117235000Y-87125000D02*
X117235000Y-86825000D01*
X150155000Y-53495000D02*
X150155000Y-53870000D01*
X149780000Y-53495000D02*
X150155000Y-53495000D01*
X150155000Y-59745000D02*
X149755000Y-59745000D01*
X150155000Y-59345000D02*
X150155000Y-59745000D01*
X143905000Y-53495000D02*
X143905000Y-53995000D01*
X144455000Y-53495000D02*
X143905000Y-53495000D01*
X144005000Y-60045000D02*
X144005000Y-61695000D01*
X144230000Y-60045000D02*
X144005000Y-60045000D01*
X144230000Y-59745000D02*
X144230000Y-60045000D01*
X143905000Y-59395000D02*
X144230000Y-59745000D01*
X143905000Y-59395000D02*
X143905000Y-59095000D01*
X141265000Y-53495000D02*
X141265000Y-53870000D01*
X140890000Y-53495000D02*
X141265000Y-53495000D01*
X141265000Y-59745000D02*
X140865000Y-59745000D01*
X141265000Y-59345000D02*
X141265000Y-59745000D01*
X135015000Y-53495000D02*
X135015000Y-53995000D01*
X135565000Y-53495000D02*
X135015000Y-53495000D01*
X135115000Y-60045000D02*
X135115000Y-61695000D01*
X135340000Y-60045000D02*
X135115000Y-60045000D01*
X135340000Y-59745000D02*
X135340000Y-60045000D01*
X135015000Y-59395000D02*
X135340000Y-59745000D01*
X135015000Y-59395000D02*
X135015000Y-59095000D01*
X132375000Y-53495000D02*
X132375000Y-53870000D01*
X132000000Y-53495000D02*
X132375000Y-53495000D01*
X132375000Y-59745000D02*
X131975000Y-59745000D01*
X132375000Y-59345000D02*
X132375000Y-59745000D01*
X126125000Y-53495000D02*
X126125000Y-53995000D01*
X126675000Y-53495000D02*
X126125000Y-53495000D01*
X126225000Y-60045000D02*
X126225000Y-61695000D01*
X126450000Y-60045000D02*
X126225000Y-60045000D01*
X126450000Y-59745000D02*
X126450000Y-60045000D01*
X126125000Y-59395000D02*
X126450000Y-59745000D01*
X126125000Y-59395000D02*
X126125000Y-59095000D01*
X123485000Y-53495000D02*
X123485000Y-53870000D01*
X123110000Y-53495000D02*
X123485000Y-53495000D01*
X123485000Y-59745000D02*
X123085000Y-59745000D01*
X123485000Y-59345000D02*
X123485000Y-59745000D01*
X117235000Y-53495000D02*
X117235000Y-53995000D01*
X117785000Y-53495000D02*
X117235000Y-53495000D01*
X117335000Y-60045000D02*
X117335000Y-61695000D01*
X117560000Y-60045000D02*
X117335000Y-60045000D01*
X117560000Y-59745000D02*
X117560000Y-60045000D01*
X117235000Y-59395000D02*
X117560000Y-59745000D01*
X117235000Y-59395000D02*
X117235000Y-59095000D01*
D12*
X139344130Y-76898837D02*
G75*
G02X137262039Y-76899000I-1041130J1079837D01*
G01*
X139344130Y-74739163D02*
G75*
G03X137262039Y-74739000I-1041130J-1079837D01*
G01*
X139975335Y-76897608D02*
G75*
G02X136743000Y-77054516I-1672335J1078608D01*
G01*
X139975335Y-74740392D02*
G75*
G03X136743000Y-74583484I-1672335J-1078608D01*
G01*
X136743000Y-76899000D02*
X136743000Y-77055000D01*
X136743000Y-74583000D02*
X136743000Y-74739000D01*
X121437130Y-76797237D02*
G75*
G02X119355039Y-76797400I-1041130J1079837D01*
G01*
X121437130Y-74637563D02*
G75*
G03X119355039Y-74637400I-1041130J-1079837D01*
G01*
X122068335Y-76796008D02*
G75*
G02X118836000Y-76952916I-1672335J1078608D01*
G01*
X122068335Y-74638792D02*
G75*
G03X118836000Y-74481884I-1672335J-1078608D01*
G01*
X118836000Y-76797400D02*
X118836000Y-76953400D01*
X118836000Y-74481400D02*
X118836000Y-74637400D01*
X148361130Y-66484837D02*
G75*
G02X146279039Y-66485000I-1041130J1079837D01*
G01*
X148361130Y-64325163D02*
G75*
G03X146279039Y-64325000I-1041130J-1079837D01*
G01*
X148992335Y-66483608D02*
G75*
G02X145760000Y-66640516I-1672335J1078608D01*
G01*
X148992335Y-64326392D02*
G75*
G03X145760000Y-64169484I-1672335J-1078608D01*
G01*
X145760000Y-66485000D02*
X145760000Y-66641000D01*
X145760000Y-64169000D02*
X145760000Y-64325000D01*
X139471130Y-66484837D02*
G75*
G02X137389039Y-66485000I-1041130J1079837D01*
G01*
X139471130Y-64325163D02*
G75*
G03X137389039Y-64325000I-1041130J-1079837D01*
G01*
X140102335Y-66483608D02*
G75*
G02X136870000Y-66640516I-1672335J1078608D01*
G01*
X140102335Y-64326392D02*
G75*
G03X136870000Y-64169484I-1672335J-1078608D01*
G01*
X136870000Y-66485000D02*
X136870000Y-66641000D01*
X136870000Y-64169000D02*
X136870000Y-64325000D01*
X130581130Y-66484837D02*
G75*
G02X128499039Y-66485000I-1041130J1079837D01*
G01*
X130581130Y-64325163D02*
G75*
G03X128499039Y-64325000I-1041130J-1079837D01*
G01*
X131212335Y-66483608D02*
G75*
G02X127980000Y-66640516I-1672335J1078608D01*
G01*
X131212335Y-64326392D02*
G75*
G03X127980000Y-64169484I-1672335J-1078608D01*
G01*
X127980000Y-66485000D02*
X127980000Y-66641000D01*
X127980000Y-64169000D02*
X127980000Y-64325000D01*
X121056130Y-66484837D02*
G75*
G02X118974039Y-66485000I-1041130J1079837D01*
G01*
X121056130Y-64325163D02*
G75*
G03X118974039Y-64325000I-1041130J-1079837D01*
G01*
X121687335Y-66483608D02*
G75*
G02X118455000Y-66640516I-1672335J1078608D01*
G01*
X121687335Y-64326392D02*
G75*
G03X118455000Y-64169484I-1672335J-1078608D01*
G01*
X118455000Y-66485000D02*
X118455000Y-66641000D01*
X118455000Y-64169000D02*
X118455000Y-64325000D01*
X101367000Y-81845564D02*
X101367000Y-80641436D01*
X99547000Y-81845564D02*
X99547000Y-80641436D01*
D11*
X141265000Y-81206400D02*
X141265000Y-81581400D01*
X140890000Y-81206400D02*
X141265000Y-81206400D01*
X141265000Y-87456400D02*
X140865000Y-87456400D01*
X141265000Y-87056400D02*
X141265000Y-87456400D01*
X135015000Y-81206400D02*
X135015000Y-81706400D01*
X135565000Y-81206400D02*
X135015000Y-81206400D01*
X135115000Y-87756400D02*
X135115000Y-89406400D01*
X135340000Y-87756400D02*
X135115000Y-87756400D01*
X135340000Y-87456400D02*
X135340000Y-87756400D01*
X135015000Y-87106400D02*
X135340000Y-87456400D01*
X135015000Y-87106400D02*
X135015000Y-86806400D01*
X132375000Y-81206400D02*
X132375000Y-81581400D01*
X132000000Y-81206400D02*
X132375000Y-81206400D01*
X132375000Y-87456400D02*
X131975000Y-87456400D01*
X132375000Y-87056400D02*
X132375000Y-87456400D01*
X126125000Y-81206400D02*
X126125000Y-81706400D01*
X126675000Y-81206400D02*
X126125000Y-81206400D01*
X126225000Y-87756400D02*
X126225000Y-89406400D01*
X126450000Y-87756400D02*
X126225000Y-87756400D01*
X126450000Y-87456400D02*
X126450000Y-87756400D01*
X126125000Y-87106400D02*
X126450000Y-87456400D01*
X126125000Y-87106400D02*
X126125000Y-86806400D01*
D12*
X148234130Y-76898837D02*
G75*
G02X146152039Y-76899000I-1041130J1079837D01*
G01*
X148234130Y-74739163D02*
G75*
G03X146152039Y-74739000I-1041130J-1079837D01*
G01*
X148865335Y-76897608D02*
G75*
G02X145633000Y-77054516I-1672335J1078608D01*
G01*
X148865335Y-74740392D02*
G75*
G03X145633000Y-74583484I-1672335J-1078608D01*
G01*
X145633000Y-76899000D02*
X145633000Y-77055000D01*
X145633000Y-74583000D02*
X145633000Y-74739000D01*
X130327130Y-76898837D02*
G75*
G02X128245039Y-76899000I-1041130J1079837D01*
G01*
X130327130Y-74739163D02*
G75*
G03X128245039Y-74739000I-1041130J-1079837D01*
G01*
X130958335Y-76897608D02*
G75*
G02X127726000Y-77054516I-1672335J1078608D01*
G01*
X130958335Y-74740392D02*
G75*
G03X127726000Y-74583484I-1672335J-1078608D01*
G01*
X127726000Y-76899000D02*
X127726000Y-77055000D01*
X127726000Y-74583000D02*
X127726000Y-74739000D01*
X54127130Y-53911837D02*
G75*
G02X52045039Y-53912000I-1041130J1079837D01*
G01*
X54127130Y-51752163D02*
G75*
G03X52045039Y-51752000I-1041130J-1079837D01*
G01*
X54758335Y-53910608D02*
G75*
G02X51526000Y-54067516I-1672335J1078608D01*
G01*
X54758335Y-51753392D02*
G75*
G03X51526000Y-51596484I-1672335J-1078608D01*
G01*
X51526000Y-53912000D02*
X51526000Y-54068000D01*
X51526000Y-51596000D02*
X51526000Y-51752000D01*
X59334130Y-53911837D02*
G75*
G02X57252039Y-53912000I-1041130J1079837D01*
G01*
X59334130Y-51752163D02*
G75*
G03X57252039Y-51752000I-1041130J-1079837D01*
G01*
X59965335Y-53910608D02*
G75*
G02X56733000Y-54067516I-1672335J1078608D01*
G01*
X59965335Y-51753392D02*
G75*
G03X56733000Y-51596484I-1672335J-1078608D01*
G01*
X56733000Y-53912000D02*
X56733000Y-54068000D01*
X56733000Y-51596000D02*
X56733000Y-51752000D01*
X64541130Y-53911837D02*
G75*
G02X62459039Y-53912000I-1041130J1079837D01*
G01*
X64541130Y-51752163D02*
G75*
G03X62459039Y-51752000I-1041130J-1079837D01*
G01*
X65172335Y-53910608D02*
G75*
G02X61940000Y-54067516I-1672335J1078608D01*
G01*
X65172335Y-51753392D02*
G75*
G03X61940000Y-51596484I-1672335J-1078608D01*
G01*
X61940000Y-53912000D02*
X61940000Y-54068000D01*
X61940000Y-51596000D02*
X61940000Y-51752000D01*
D11*
X192355000Y-88850000D02*
X191980000Y-88850000D01*
X192355000Y-88475000D02*
X192355000Y-88850000D01*
X186105000Y-88850000D02*
X186105000Y-88450000D01*
X186505000Y-88850000D02*
X186105000Y-88850000D01*
X192355000Y-82600000D02*
X191855000Y-82600000D01*
X192355000Y-83150000D02*
X192355000Y-82600000D01*
X185805000Y-82700000D02*
X184155000Y-82700000D01*
X185805000Y-82925000D02*
X185805000Y-82700000D01*
X186105000Y-82925000D02*
X185805000Y-82925000D01*
X186455000Y-82600000D02*
X186105000Y-82925000D01*
X186455000Y-82600000D02*
X186755000Y-82600000D01*
X192355000Y-68530000D02*
X191980000Y-68530000D01*
X192355000Y-68155000D02*
X192355000Y-68530000D01*
X186105000Y-68530000D02*
X186105000Y-68130000D01*
X186505000Y-68530000D02*
X186105000Y-68530000D01*
X192355000Y-62280000D02*
X191855000Y-62280000D01*
X192355000Y-62830000D02*
X192355000Y-62280000D01*
X185805000Y-62380000D02*
X184155000Y-62380000D01*
X185805000Y-62605000D02*
X185805000Y-62380000D01*
X186105000Y-62605000D02*
X185805000Y-62605000D01*
X186455000Y-62280000D02*
X186105000Y-62605000D01*
X186455000Y-62280000D02*
X186755000Y-62280000D01*
X192355000Y-58370000D02*
X191980000Y-58370000D01*
X192355000Y-57995000D02*
X192355000Y-58370000D01*
X186105000Y-58370000D02*
X186105000Y-57970000D01*
X186505000Y-58370000D02*
X186105000Y-58370000D01*
X192355000Y-52120000D02*
X191855000Y-52120000D01*
X192355000Y-52670000D02*
X192355000Y-52120000D01*
X185805000Y-52220000D02*
X184155000Y-52220000D01*
X185805000Y-52445000D02*
X185805000Y-52220000D01*
X186105000Y-52445000D02*
X185805000Y-52445000D01*
X186455000Y-52120000D02*
X186105000Y-52445000D01*
X186455000Y-52120000D02*
X186755000Y-52120000D01*
D12*
X50906000Y-56076436D02*
X50906000Y-57280564D01*
X52726000Y-56076436D02*
X52726000Y-57280564D01*
X56113000Y-56130436D02*
X56113000Y-57334564D01*
X57933000Y-56130436D02*
X57933000Y-57334564D01*
X61320000Y-56257436D02*
X61320000Y-57461564D01*
X63140000Y-56257436D02*
X63140000Y-57461564D01*
X94100900Y-79776000D02*
X97550900Y-79776000D01*
X94100900Y-79776000D02*
X92150900Y-79776000D01*
X94100900Y-74656000D02*
X96050900Y-74656000D01*
X94100900Y-74656000D02*
X92150900Y-74656000D01*
X148149000Y-73212000D02*
X150809000Y-73212000D01*
X148149000Y-70612000D02*
X148149000Y-73212000D01*
X150809000Y-70612000D02*
X150809000Y-73212000D01*
X148149000Y-70612000D02*
X150809000Y-70612000D01*
X148149000Y-69342000D02*
X148149000Y-68012000D01*
X148149000Y-68012000D02*
X149479000Y-68012000D01*
X94582064Y-82444000D02*
X93377936Y-82444000D01*
X94582064Y-80624000D02*
X93377936Y-80624000D01*
X94582064Y-83164000D02*
X93377936Y-83164000D01*
X94582064Y-84984000D02*
X93377936Y-84984000D01*
X94610464Y-87524000D02*
X93406336Y-87524000D01*
X94610464Y-85704000D02*
X93406336Y-85704000D01*
X94590164Y-88244000D02*
X93386036Y-88244000D01*
X94590164Y-90064000D02*
X93386036Y-90064000D01*
X94582064Y-71268000D02*
X93377936Y-71268000D01*
X94582064Y-69448000D02*
X93377936Y-69448000D01*
X94582064Y-71988000D02*
X93377936Y-71988000D01*
X94582064Y-73808000D02*
X93377936Y-73808000D01*
X64646564Y-68982000D02*
X63442436Y-68982000D01*
X64646564Y-67162000D02*
X63442436Y-67162000D01*
D10*
X196151666Y-76046761D02*
X196294523Y-76094380D01*
X196532619Y-76094380D01*
X196627857Y-76046761D01*
X196675476Y-75999142D01*
X196723095Y-75903904D01*
X196723095Y-75808666D01*
X196675476Y-75713428D01*
X196627857Y-75665809D01*
X196532619Y-75618190D01*
X196342142Y-75570571D01*
X196246904Y-75522952D01*
X196199285Y-75475333D01*
X196151666Y-75380095D01*
X196151666Y-75284857D01*
X196199285Y-75189619D01*
X196246904Y-75142000D01*
X196342142Y-75094380D01*
X196580238Y-75094380D01*
X196723095Y-75142000D01*
X197056428Y-75094380D02*
X197294523Y-76094380D01*
X197485000Y-75380095D01*
X197675476Y-76094380D01*
X197913571Y-75094380D01*
X198199285Y-75094380D02*
X198818333Y-75094380D01*
X198485000Y-75475333D01*
X198627857Y-75475333D01*
X198723095Y-75522952D01*
X198770714Y-75570571D01*
X198818333Y-75665809D01*
X198818333Y-75903904D01*
X198770714Y-75999142D01*
X198723095Y-76046761D01*
X198627857Y-76094380D01*
X198342142Y-76094380D01*
X198246904Y-76046761D01*
X198199285Y-75999142D01*
X79684666Y-84647380D02*
X79684666Y-85361666D01*
X79637047Y-85504523D01*
X79541809Y-85599761D01*
X79398952Y-85647380D01*
X79303714Y-85647380D01*
X80160857Y-85647380D02*
X80160857Y-84647380D01*
X80541809Y-84647380D01*
X80637047Y-84695000D01*
X80684666Y-84742619D01*
X80732285Y-84837857D01*
X80732285Y-84980714D01*
X80684666Y-85075952D01*
X80637047Y-85123571D01*
X80541809Y-85171190D01*
X80160857Y-85171190D01*
X81303714Y-85075952D02*
X81208476Y-85028333D01*
X81160857Y-84980714D01*
X81113238Y-84885476D01*
X81113238Y-84837857D01*
X81160857Y-84742619D01*
X81208476Y-84695000D01*
X81303714Y-84647380D01*
X81494190Y-84647380D01*
X81589428Y-84695000D01*
X81637047Y-84742619D01*
X81684666Y-84837857D01*
X81684666Y-84885476D01*
X81637047Y-84980714D01*
X81589428Y-85028333D01*
X81494190Y-85075952D01*
X81303714Y-85075952D01*
X81208476Y-85123571D01*
X81160857Y-85171190D01*
X81113238Y-85266428D01*
X81113238Y-85456904D01*
X81160857Y-85552142D01*
X81208476Y-85599761D01*
X81303714Y-85647380D01*
X81494190Y-85647380D01*
X81589428Y-85599761D01*
X81637047Y-85552142D01*
X81684666Y-85456904D01*
X81684666Y-85266428D01*
X81637047Y-85171190D01*
X81589428Y-85123571D01*
X81494190Y-85075952D01*
X74858666Y-82002380D02*
X74858666Y-82716666D01*
X74811047Y-82859523D01*
X74715809Y-82954761D01*
X74572952Y-83002380D01*
X74477714Y-83002380D01*
X75334857Y-83002380D02*
X75334857Y-82002380D01*
X75715809Y-82002380D01*
X75811047Y-82050000D01*
X75858666Y-82097619D01*
X75906285Y-82192857D01*
X75906285Y-82335714D01*
X75858666Y-82430952D01*
X75811047Y-82478571D01*
X75715809Y-82526190D01*
X75334857Y-82526190D01*
X76382476Y-83002380D02*
X76572952Y-83002380D01*
X76668190Y-82954761D01*
X76715809Y-82907142D01*
X76811047Y-82764285D01*
X76858666Y-82573809D01*
X76858666Y-82192857D01*
X76811047Y-82097619D01*
X76763428Y-82050000D01*
X76668190Y-82002380D01*
X76477714Y-82002380D01*
X76382476Y-82050000D01*
X76334857Y-82097619D01*
X76287238Y-82192857D01*
X76287238Y-82430952D01*
X76334857Y-82526190D01*
X76382476Y-82573809D01*
X76477714Y-82621428D01*
X76668190Y-82621428D01*
X76763428Y-82573809D01*
X76811047Y-82526190D01*
X76858666Y-82430952D01*
X104068666Y-83653380D02*
X104068666Y-84367666D01*
X104021047Y-84510523D01*
X103925809Y-84605761D01*
X103782952Y-84653380D01*
X103687714Y-84653380D01*
X104544857Y-84653380D02*
X104544857Y-83653380D01*
X104925809Y-83653380D01*
X105021047Y-83701000D01*
X105068666Y-83748619D01*
X105116285Y-83843857D01*
X105116285Y-83986714D01*
X105068666Y-84081952D01*
X105021047Y-84129571D01*
X104925809Y-84177190D01*
X104544857Y-84177190D01*
X105449619Y-83653380D02*
X106116285Y-83653380D01*
X105687714Y-84653380D01*
X112609380Y-71246904D02*
X113418904Y-71246904D01*
X113514142Y-71199285D01*
X113561761Y-71151666D01*
X113609380Y-71056428D01*
X113609380Y-70865952D01*
X113561761Y-70770714D01*
X113514142Y-70723095D01*
X113418904Y-70675476D01*
X112609380Y-70675476D01*
X113609380Y-69675476D02*
X113609380Y-70246904D01*
X113609380Y-69961190D02*
X112609380Y-69961190D01*
X112752238Y-70056428D01*
X112847476Y-70151666D01*
X112895095Y-70246904D01*
X142744761Y-86192923D02*
X142792380Y-86050066D01*
X142792380Y-85811971D01*
X142744761Y-85716733D01*
X142697142Y-85669114D01*
X142601904Y-85621495D01*
X142506666Y-85621495D01*
X142411428Y-85669114D01*
X142363809Y-85716733D01*
X142316190Y-85811971D01*
X142268571Y-86002447D01*
X142220952Y-86097685D01*
X142173333Y-86145304D01*
X142078095Y-86192923D01*
X141982857Y-86192923D01*
X141887619Y-86145304D01*
X141840000Y-86097685D01*
X141792380Y-86002447D01*
X141792380Y-85764352D01*
X141840000Y-85621495D01*
X141792380Y-85288161D02*
X142792380Y-85050066D01*
X142078095Y-84859590D01*
X142792380Y-84669114D01*
X141792380Y-84431019D01*
X142792380Y-83526257D02*
X142792380Y-84097685D01*
X142792380Y-83811971D02*
X141792380Y-83811971D01*
X141935238Y-83907209D01*
X142030476Y-84002447D01*
X142078095Y-84097685D01*
X141792380Y-83192923D02*
X141792380Y-82526257D01*
X142792380Y-82954828D01*
X116074761Y-86189523D02*
X116122380Y-86046666D01*
X116122380Y-85808571D01*
X116074761Y-85713333D01*
X116027142Y-85665714D01*
X115931904Y-85618095D01*
X115836666Y-85618095D01*
X115741428Y-85665714D01*
X115693809Y-85713333D01*
X115646190Y-85808571D01*
X115598571Y-85999047D01*
X115550952Y-86094285D01*
X115503333Y-86141904D01*
X115408095Y-86189523D01*
X115312857Y-86189523D01*
X115217619Y-86141904D01*
X115170000Y-86094285D01*
X115122380Y-85999047D01*
X115122380Y-85760952D01*
X115170000Y-85618095D01*
X115122380Y-85284761D02*
X116122380Y-85046666D01*
X115408095Y-84856190D01*
X116122380Y-84665714D01*
X115122380Y-84427619D01*
X116122380Y-83522857D02*
X116122380Y-84094285D01*
X116122380Y-83808571D02*
X115122380Y-83808571D01*
X115265238Y-83903809D01*
X115360476Y-83999047D01*
X115408095Y-84094285D01*
X115455714Y-82665714D02*
X116122380Y-82665714D01*
X115074761Y-82903809D02*
X115789047Y-83141904D01*
X115789047Y-82522857D01*
X142744761Y-58459523D02*
X142792380Y-58316666D01*
X142792380Y-58078571D01*
X142744761Y-57983333D01*
X142697142Y-57935714D01*
X142601904Y-57888095D01*
X142506666Y-57888095D01*
X142411428Y-57935714D01*
X142363809Y-57983333D01*
X142316190Y-58078571D01*
X142268571Y-58269047D01*
X142220952Y-58364285D01*
X142173333Y-58411904D01*
X142078095Y-58459523D01*
X141982857Y-58459523D01*
X141887619Y-58411904D01*
X141840000Y-58364285D01*
X141792380Y-58269047D01*
X141792380Y-58030952D01*
X141840000Y-57888095D01*
X141792380Y-57554761D02*
X142792380Y-57316666D01*
X142078095Y-57126190D01*
X142792380Y-56935714D01*
X141792380Y-56697619D01*
X142792380Y-55792857D02*
X142792380Y-56364285D01*
X142792380Y-56078571D02*
X141792380Y-56078571D01*
X141935238Y-56173809D01*
X142030476Y-56269047D01*
X142078095Y-56364285D01*
X141792380Y-55459523D02*
X141792380Y-54840476D01*
X142173333Y-55173809D01*
X142173333Y-55030952D01*
X142220952Y-54935714D01*
X142268571Y-54888095D01*
X142363809Y-54840476D01*
X142601904Y-54840476D01*
X142697142Y-54888095D01*
X142744761Y-54935714D01*
X142792380Y-55030952D01*
X142792380Y-55316666D01*
X142744761Y-55411904D01*
X142697142Y-55459523D01*
X133854761Y-58459523D02*
X133902380Y-58316666D01*
X133902380Y-58078571D01*
X133854761Y-57983333D01*
X133807142Y-57935714D01*
X133711904Y-57888095D01*
X133616666Y-57888095D01*
X133521428Y-57935714D01*
X133473809Y-57983333D01*
X133426190Y-58078571D01*
X133378571Y-58269047D01*
X133330952Y-58364285D01*
X133283333Y-58411904D01*
X133188095Y-58459523D01*
X133092857Y-58459523D01*
X132997619Y-58411904D01*
X132950000Y-58364285D01*
X132902380Y-58269047D01*
X132902380Y-58030952D01*
X132950000Y-57888095D01*
X132902380Y-57554761D02*
X133902380Y-57316666D01*
X133188095Y-57126190D01*
X133902380Y-56935714D01*
X132902380Y-56697619D01*
X133902380Y-55792857D02*
X133902380Y-56364285D01*
X133902380Y-56078571D02*
X132902380Y-56078571D01*
X133045238Y-56173809D01*
X133140476Y-56269047D01*
X133188095Y-56364285D01*
X132997619Y-55411904D02*
X132950000Y-55364285D01*
X132902380Y-55269047D01*
X132902380Y-55030952D01*
X132950000Y-54935714D01*
X132997619Y-54888095D01*
X133092857Y-54840476D01*
X133188095Y-54840476D01*
X133330952Y-54888095D01*
X133902380Y-55459523D01*
X133902380Y-54840476D01*
X124964761Y-58459523D02*
X125012380Y-58316666D01*
X125012380Y-58078571D01*
X124964761Y-57983333D01*
X124917142Y-57935714D01*
X124821904Y-57888095D01*
X124726666Y-57888095D01*
X124631428Y-57935714D01*
X124583809Y-57983333D01*
X124536190Y-58078571D01*
X124488571Y-58269047D01*
X124440952Y-58364285D01*
X124393333Y-58411904D01*
X124298095Y-58459523D01*
X124202857Y-58459523D01*
X124107619Y-58411904D01*
X124060000Y-58364285D01*
X124012380Y-58269047D01*
X124012380Y-58030952D01*
X124060000Y-57888095D01*
X124012380Y-57554761D02*
X125012380Y-57316666D01*
X124298095Y-57126190D01*
X125012380Y-56935714D01*
X124012380Y-56697619D01*
X125012380Y-55792857D02*
X125012380Y-56364285D01*
X125012380Y-56078571D02*
X124012380Y-56078571D01*
X124155238Y-56173809D01*
X124250476Y-56269047D01*
X124298095Y-56364285D01*
X125012380Y-54840476D02*
X125012380Y-55411904D01*
X125012380Y-55126190D02*
X124012380Y-55126190D01*
X124155238Y-55221428D01*
X124250476Y-55316666D01*
X124298095Y-55411904D01*
X116074761Y-58459523D02*
X116122380Y-58316666D01*
X116122380Y-58078571D01*
X116074761Y-57983333D01*
X116027142Y-57935714D01*
X115931904Y-57888095D01*
X115836666Y-57888095D01*
X115741428Y-57935714D01*
X115693809Y-57983333D01*
X115646190Y-58078571D01*
X115598571Y-58269047D01*
X115550952Y-58364285D01*
X115503333Y-58411904D01*
X115408095Y-58459523D01*
X115312857Y-58459523D01*
X115217619Y-58411904D01*
X115170000Y-58364285D01*
X115122380Y-58269047D01*
X115122380Y-58030952D01*
X115170000Y-57888095D01*
X115122380Y-57554761D02*
X116122380Y-57316666D01*
X115408095Y-57126190D01*
X116122380Y-56935714D01*
X115122380Y-56697619D01*
X116122380Y-55792857D02*
X116122380Y-56364285D01*
X116122380Y-56078571D02*
X115122380Y-56078571D01*
X115265238Y-56173809D01*
X115360476Y-56269047D01*
X115408095Y-56364285D01*
X115122380Y-55173809D02*
X115122380Y-55078571D01*
X115170000Y-54983333D01*
X115217619Y-54935714D01*
X115312857Y-54888095D01*
X115503333Y-54840476D01*
X115741428Y-54840476D01*
X115931904Y-54888095D01*
X116027142Y-54935714D01*
X116074761Y-54983333D01*
X116122380Y-55078571D01*
X116122380Y-55173809D01*
X116074761Y-55269047D01*
X116027142Y-55316666D01*
X115931904Y-55364285D01*
X115741428Y-55411904D01*
X115503333Y-55411904D01*
X115312857Y-55364285D01*
X115217619Y-55316666D01*
X115170000Y-55269047D01*
X115122380Y-55173809D01*
X137088714Y-73311380D02*
X137088714Y-72311380D01*
X137326809Y-72311380D01*
X137469666Y-72359000D01*
X137564904Y-72454238D01*
X137612523Y-72549476D01*
X137660142Y-72739952D01*
X137660142Y-72882809D01*
X137612523Y-73073285D01*
X137564904Y-73168523D01*
X137469666Y-73263761D01*
X137326809Y-73311380D01*
X137088714Y-73311380D01*
X138612523Y-73311380D02*
X138041095Y-73311380D01*
X138326809Y-73311380D02*
X138326809Y-72311380D01*
X138231571Y-72454238D01*
X138136333Y-72549476D01*
X138041095Y-72597095D01*
X139469666Y-72311380D02*
X139279190Y-72311380D01*
X139183952Y-72359000D01*
X139136333Y-72406619D01*
X139041095Y-72549476D01*
X138993476Y-72739952D01*
X138993476Y-73120904D01*
X139041095Y-73216142D01*
X139088714Y-73263761D01*
X139183952Y-73311380D01*
X139374428Y-73311380D01*
X139469666Y-73263761D01*
X139517285Y-73216142D01*
X139564904Y-73120904D01*
X139564904Y-72882809D01*
X139517285Y-72787571D01*
X139469666Y-72739952D01*
X139374428Y-72692333D01*
X139183952Y-72692333D01*
X139088714Y-72739952D01*
X139041095Y-72787571D01*
X138993476Y-72882809D01*
X119181714Y-73209780D02*
X119181714Y-72209780D01*
X119419809Y-72209780D01*
X119562666Y-72257400D01*
X119657904Y-72352638D01*
X119705523Y-72447876D01*
X119753142Y-72638352D01*
X119753142Y-72781209D01*
X119705523Y-72971685D01*
X119657904Y-73066923D01*
X119562666Y-73162161D01*
X119419809Y-73209780D01*
X119181714Y-73209780D01*
X120705523Y-73209780D02*
X120134095Y-73209780D01*
X120419809Y-73209780D02*
X120419809Y-72209780D01*
X120324571Y-72352638D01*
X120229333Y-72447876D01*
X120134095Y-72495495D01*
X121562666Y-72543114D02*
X121562666Y-73209780D01*
X121324571Y-72162161D02*
X121086476Y-72876447D01*
X121705523Y-72876447D01*
X145075714Y-68912380D02*
X145075714Y-67912380D01*
X145313809Y-67912380D01*
X145456666Y-67960000D01*
X145551904Y-68055238D01*
X145599523Y-68150476D01*
X145647142Y-68340952D01*
X145647142Y-68483809D01*
X145599523Y-68674285D01*
X145551904Y-68769523D01*
X145456666Y-68864761D01*
X145313809Y-68912380D01*
X145075714Y-68912380D01*
X146599523Y-68912380D02*
X146028095Y-68912380D01*
X146313809Y-68912380D02*
X146313809Y-67912380D01*
X146218571Y-68055238D01*
X146123333Y-68150476D01*
X146028095Y-68198095D01*
X146932857Y-67912380D02*
X147551904Y-67912380D01*
X147218571Y-68293333D01*
X147361428Y-68293333D01*
X147456666Y-68340952D01*
X147504285Y-68388571D01*
X147551904Y-68483809D01*
X147551904Y-68721904D01*
X147504285Y-68817142D01*
X147456666Y-68864761D01*
X147361428Y-68912380D01*
X147075714Y-68912380D01*
X146980476Y-68864761D01*
X146932857Y-68817142D01*
X137325714Y-68862380D02*
X137325714Y-67862380D01*
X137563809Y-67862380D01*
X137706666Y-67910000D01*
X137801904Y-68005238D01*
X137849523Y-68100476D01*
X137897142Y-68290952D01*
X137897142Y-68433809D01*
X137849523Y-68624285D01*
X137801904Y-68719523D01*
X137706666Y-68814761D01*
X137563809Y-68862380D01*
X137325714Y-68862380D01*
X138849523Y-68862380D02*
X138278095Y-68862380D01*
X138563809Y-68862380D02*
X138563809Y-67862380D01*
X138468571Y-68005238D01*
X138373333Y-68100476D01*
X138278095Y-68148095D01*
X139230476Y-67957619D02*
X139278095Y-67910000D01*
X139373333Y-67862380D01*
X139611428Y-67862380D01*
X139706666Y-67910000D01*
X139754285Y-67957619D01*
X139801904Y-68052857D01*
X139801904Y-68148095D01*
X139754285Y-68290952D01*
X139182857Y-68862380D01*
X139801904Y-68862380D01*
X128365714Y-68862380D02*
X128365714Y-67862380D01*
X128603809Y-67862380D01*
X128746666Y-67910000D01*
X128841904Y-68005238D01*
X128889523Y-68100476D01*
X128937142Y-68290952D01*
X128937142Y-68433809D01*
X128889523Y-68624285D01*
X128841904Y-68719523D01*
X128746666Y-68814761D01*
X128603809Y-68862380D01*
X128365714Y-68862380D01*
X129889523Y-68862380D02*
X129318095Y-68862380D01*
X129603809Y-68862380D02*
X129603809Y-67862380D01*
X129508571Y-68005238D01*
X129413333Y-68100476D01*
X129318095Y-68148095D01*
X130841904Y-68862380D02*
X130270476Y-68862380D01*
X130556190Y-68862380D02*
X130556190Y-67862380D01*
X130460952Y-68005238D01*
X130365714Y-68100476D01*
X130270476Y-68148095D01*
X118745714Y-68862380D02*
X118745714Y-67862380D01*
X118983809Y-67862380D01*
X119126666Y-67910000D01*
X119221904Y-68005238D01*
X119269523Y-68100476D01*
X119317142Y-68290952D01*
X119317142Y-68433809D01*
X119269523Y-68624285D01*
X119221904Y-68719523D01*
X119126666Y-68814761D01*
X118983809Y-68862380D01*
X118745714Y-68862380D01*
X120269523Y-68862380D02*
X119698095Y-68862380D01*
X119983809Y-68862380D02*
X119983809Y-67862380D01*
X119888571Y-68005238D01*
X119793333Y-68100476D01*
X119698095Y-68148095D01*
X120888571Y-67862380D02*
X120983809Y-67862380D01*
X121079047Y-67910000D01*
X121126666Y-67957619D01*
X121174285Y-68052857D01*
X121221904Y-68243333D01*
X121221904Y-68481428D01*
X121174285Y-68671904D01*
X121126666Y-68767142D01*
X121079047Y-68814761D01*
X120983809Y-68862380D01*
X120888571Y-68862380D01*
X120793333Y-68814761D01*
X120745714Y-68767142D01*
X120698095Y-68671904D01*
X120650476Y-68481428D01*
X120650476Y-68243333D01*
X120698095Y-68052857D01*
X120745714Y-67957619D01*
X120793333Y-67910000D01*
X120888571Y-67862380D01*
X100290333Y-78335142D02*
X100242714Y-78382761D01*
X100099857Y-78430380D01*
X100004619Y-78430380D01*
X99861761Y-78382761D01*
X99766523Y-78287523D01*
X99718904Y-78192285D01*
X99671285Y-78001809D01*
X99671285Y-77858952D01*
X99718904Y-77668476D01*
X99766523Y-77573238D01*
X99861761Y-77478000D01*
X100004619Y-77430380D01*
X100099857Y-77430380D01*
X100242714Y-77478000D01*
X100290333Y-77525619D01*
X101242714Y-78430380D02*
X100671285Y-78430380D01*
X100957000Y-78430380D02*
X100957000Y-77430380D01*
X100861761Y-77573238D01*
X100766523Y-77668476D01*
X100671285Y-77716095D01*
X133854761Y-86170923D02*
X133902380Y-86028066D01*
X133902380Y-85789971D01*
X133854761Y-85694733D01*
X133807142Y-85647114D01*
X133711904Y-85599495D01*
X133616666Y-85599495D01*
X133521428Y-85647114D01*
X133473809Y-85694733D01*
X133426190Y-85789971D01*
X133378571Y-85980447D01*
X133330952Y-86075685D01*
X133283333Y-86123304D01*
X133188095Y-86170923D01*
X133092857Y-86170923D01*
X132997619Y-86123304D01*
X132950000Y-86075685D01*
X132902380Y-85980447D01*
X132902380Y-85742352D01*
X132950000Y-85599495D01*
X132902380Y-85266161D02*
X133902380Y-85028066D01*
X133188095Y-84837590D01*
X133902380Y-84647114D01*
X132902380Y-84409019D01*
X133902380Y-83504257D02*
X133902380Y-84075685D01*
X133902380Y-83789971D02*
X132902380Y-83789971D01*
X133045238Y-83885209D01*
X133140476Y-83980447D01*
X133188095Y-84075685D01*
X132902380Y-82647114D02*
X132902380Y-82837590D01*
X132950000Y-82932828D01*
X132997619Y-82980447D01*
X133140476Y-83075685D01*
X133330952Y-83123304D01*
X133711904Y-83123304D01*
X133807142Y-83075685D01*
X133854761Y-83028066D01*
X133902380Y-82932828D01*
X133902380Y-82742352D01*
X133854761Y-82647114D01*
X133807142Y-82599495D01*
X133711904Y-82551876D01*
X133473809Y-82551876D01*
X133378571Y-82599495D01*
X133330952Y-82647114D01*
X133283333Y-82742352D01*
X133283333Y-82932828D01*
X133330952Y-83028066D01*
X133378571Y-83075685D01*
X133473809Y-83123304D01*
X124964761Y-86170923D02*
X125012380Y-86028066D01*
X125012380Y-85789971D01*
X124964761Y-85694733D01*
X124917142Y-85647114D01*
X124821904Y-85599495D01*
X124726666Y-85599495D01*
X124631428Y-85647114D01*
X124583809Y-85694733D01*
X124536190Y-85789971D01*
X124488571Y-85980447D01*
X124440952Y-86075685D01*
X124393333Y-86123304D01*
X124298095Y-86170923D01*
X124202857Y-86170923D01*
X124107619Y-86123304D01*
X124060000Y-86075685D01*
X124012380Y-85980447D01*
X124012380Y-85742352D01*
X124060000Y-85599495D01*
X124012380Y-85266161D02*
X125012380Y-85028066D01*
X124298095Y-84837590D01*
X125012380Y-84647114D01*
X124012380Y-84409019D01*
X125012380Y-83504257D02*
X125012380Y-84075685D01*
X125012380Y-83789971D02*
X124012380Y-83789971D01*
X124155238Y-83885209D01*
X124250476Y-83980447D01*
X124298095Y-84075685D01*
X124012380Y-82599495D02*
X124012380Y-83075685D01*
X124488571Y-83123304D01*
X124440952Y-83075685D01*
X124393333Y-82980447D01*
X124393333Y-82742352D01*
X124440952Y-82647114D01*
X124488571Y-82599495D01*
X124583809Y-82551876D01*
X124821904Y-82551876D01*
X124917142Y-82599495D01*
X124964761Y-82647114D01*
X125012380Y-82742352D01*
X125012380Y-82980447D01*
X124964761Y-83075685D01*
X124917142Y-83123304D01*
X144935714Y-73322380D02*
X144935714Y-72322380D01*
X145173809Y-72322380D01*
X145316666Y-72370000D01*
X145411904Y-72465238D01*
X145459523Y-72560476D01*
X145507142Y-72750952D01*
X145507142Y-72893809D01*
X145459523Y-73084285D01*
X145411904Y-73179523D01*
X145316666Y-73274761D01*
X145173809Y-73322380D01*
X144935714Y-73322380D01*
X146459523Y-73322380D02*
X145888095Y-73322380D01*
X146173809Y-73322380D02*
X146173809Y-72322380D01*
X146078571Y-72465238D01*
X145983333Y-72560476D01*
X145888095Y-72608095D01*
X146792857Y-72322380D02*
X147459523Y-72322380D01*
X147030952Y-73322380D01*
X128071714Y-73311380D02*
X128071714Y-72311380D01*
X128309809Y-72311380D01*
X128452666Y-72359000D01*
X128547904Y-72454238D01*
X128595523Y-72549476D01*
X128643142Y-72739952D01*
X128643142Y-72882809D01*
X128595523Y-73073285D01*
X128547904Y-73168523D01*
X128452666Y-73263761D01*
X128309809Y-73311380D01*
X128071714Y-73311380D01*
X129595523Y-73311380D02*
X129024095Y-73311380D01*
X129309809Y-73311380D02*
X129309809Y-72311380D01*
X129214571Y-72454238D01*
X129119333Y-72549476D01*
X129024095Y-72597095D01*
X130500285Y-72311380D02*
X130024095Y-72311380D01*
X129976476Y-72787571D01*
X130024095Y-72739952D01*
X130119333Y-72692333D01*
X130357428Y-72692333D01*
X130452666Y-72739952D01*
X130500285Y-72787571D01*
X130547904Y-72882809D01*
X130547904Y-73120904D01*
X130500285Y-73216142D01*
X130452666Y-73263761D01*
X130357428Y-73311380D01*
X130119333Y-73311380D01*
X130024095Y-73263761D01*
X129976476Y-73216142D01*
X50271904Y-55342380D02*
X50271904Y-54342380D01*
X50510000Y-54342380D01*
X50652857Y-54390000D01*
X50748095Y-54485238D01*
X50795714Y-54580476D01*
X50843333Y-54770952D01*
X50843333Y-54913809D01*
X50795714Y-55104285D01*
X50748095Y-55199523D01*
X50652857Y-55294761D01*
X50510000Y-55342380D01*
X50271904Y-55342380D01*
X51795714Y-55342380D02*
X51224285Y-55342380D01*
X51510000Y-55342380D02*
X51510000Y-54342380D01*
X51414761Y-54485238D01*
X51319523Y-54580476D01*
X51224285Y-54628095D01*
X55538904Y-55682380D02*
X55538904Y-54682380D01*
X55777000Y-54682380D01*
X55919857Y-54730000D01*
X56015095Y-54825238D01*
X56062714Y-54920476D01*
X56110333Y-55110952D01*
X56110333Y-55253809D01*
X56062714Y-55444285D01*
X56015095Y-55539523D01*
X55919857Y-55634761D01*
X55777000Y-55682380D01*
X55538904Y-55682380D01*
X56491285Y-54777619D02*
X56538904Y-54730000D01*
X56634142Y-54682380D01*
X56872238Y-54682380D01*
X56967476Y-54730000D01*
X57015095Y-54777619D01*
X57062714Y-54872857D01*
X57062714Y-54968095D01*
X57015095Y-55110952D01*
X56443666Y-55682380D01*
X57062714Y-55682380D01*
X60957904Y-55792380D02*
X60957904Y-54792380D01*
X61196000Y-54792380D01*
X61338857Y-54840000D01*
X61434095Y-54935238D01*
X61481714Y-55030476D01*
X61529333Y-55220952D01*
X61529333Y-55363809D01*
X61481714Y-55554285D01*
X61434095Y-55649523D01*
X61338857Y-55744761D01*
X61196000Y-55792380D01*
X60957904Y-55792380D01*
X61862666Y-54792380D02*
X62481714Y-54792380D01*
X62148380Y-55173333D01*
X62291238Y-55173333D01*
X62386476Y-55220952D01*
X62434095Y-55268571D01*
X62481714Y-55363809D01*
X62481714Y-55601904D01*
X62434095Y-55697142D01*
X62386476Y-55744761D01*
X62291238Y-55792380D01*
X62005523Y-55792380D01*
X61910285Y-55744761D01*
X61862666Y-55697142D01*
X196151666Y-86091761D02*
X196294523Y-86139380D01*
X196532619Y-86139380D01*
X196627857Y-86091761D01*
X196675476Y-86044142D01*
X196723095Y-85948904D01*
X196723095Y-85853666D01*
X196675476Y-85758428D01*
X196627857Y-85710809D01*
X196532619Y-85663190D01*
X196342142Y-85615571D01*
X196246904Y-85567952D01*
X196199285Y-85520333D01*
X196151666Y-85425095D01*
X196151666Y-85329857D01*
X196199285Y-85234619D01*
X196246904Y-85187000D01*
X196342142Y-85139380D01*
X196580238Y-85139380D01*
X196723095Y-85187000D01*
X197056428Y-85139380D02*
X197294523Y-86139380D01*
X197485000Y-85425095D01*
X197675476Y-86139380D01*
X197913571Y-85139380D01*
X198723095Y-85472714D02*
X198723095Y-86139380D01*
X198485000Y-85091761D02*
X198246904Y-85806047D01*
X198865952Y-85806047D01*
X196151666Y-65906761D02*
X196294523Y-65954380D01*
X196532619Y-65954380D01*
X196627857Y-65906761D01*
X196675476Y-65859142D01*
X196723095Y-65763904D01*
X196723095Y-65668666D01*
X196675476Y-65573428D01*
X196627857Y-65525809D01*
X196532619Y-65478190D01*
X196342142Y-65430571D01*
X196246904Y-65382952D01*
X196199285Y-65335333D01*
X196151666Y-65240095D01*
X196151666Y-65144857D01*
X196199285Y-65049619D01*
X196246904Y-65002000D01*
X196342142Y-64954380D01*
X196580238Y-64954380D01*
X196723095Y-65002000D01*
X197056428Y-64954380D02*
X197294523Y-65954380D01*
X197485000Y-65240095D01*
X197675476Y-65954380D01*
X197913571Y-64954380D01*
X198246904Y-65049619D02*
X198294523Y-65002000D01*
X198389761Y-64954380D01*
X198627857Y-64954380D01*
X198723095Y-65002000D01*
X198770714Y-65049619D01*
X198818333Y-65144857D01*
X198818333Y-65240095D01*
X198770714Y-65382952D01*
X198199285Y-65954380D01*
X198818333Y-65954380D01*
X196151666Y-55649761D02*
X196294523Y-55697380D01*
X196532619Y-55697380D01*
X196627857Y-55649761D01*
X196675476Y-55602142D01*
X196723095Y-55506904D01*
X196723095Y-55411666D01*
X196675476Y-55316428D01*
X196627857Y-55268809D01*
X196532619Y-55221190D01*
X196342142Y-55173571D01*
X196246904Y-55125952D01*
X196199285Y-55078333D01*
X196151666Y-54983095D01*
X196151666Y-54887857D01*
X196199285Y-54792619D01*
X196246904Y-54745000D01*
X196342142Y-54697380D01*
X196580238Y-54697380D01*
X196723095Y-54745000D01*
X197056428Y-54697380D02*
X197294523Y-55697380D01*
X197485000Y-54983095D01*
X197675476Y-55697380D01*
X197913571Y-54697380D01*
X198818333Y-55697380D02*
X198246904Y-55697380D01*
X198532619Y-55697380D02*
X198532619Y-54697380D01*
X198437380Y-54840238D01*
X198342142Y-54935476D01*
X198246904Y-54983095D01*
X51649333Y-60342380D02*
X51316000Y-59866190D01*
X51077904Y-60342380D02*
X51077904Y-59342380D01*
X51458857Y-59342380D01*
X51554095Y-59390000D01*
X51601714Y-59437619D01*
X51649333Y-59532857D01*
X51649333Y-59675714D01*
X51601714Y-59770952D01*
X51554095Y-59818571D01*
X51458857Y-59866190D01*
X51077904Y-59866190D01*
X52601714Y-60342380D02*
X52030285Y-60342380D01*
X52316000Y-60342380D02*
X52316000Y-59342380D01*
X52220761Y-59485238D01*
X52125523Y-59580476D01*
X52030285Y-59628095D01*
X56729333Y-60396380D02*
X56396000Y-59920190D01*
X56157904Y-60396380D02*
X56157904Y-59396380D01*
X56538857Y-59396380D01*
X56634095Y-59444000D01*
X56681714Y-59491619D01*
X56729333Y-59586857D01*
X56729333Y-59729714D01*
X56681714Y-59824952D01*
X56634095Y-59872571D01*
X56538857Y-59920190D01*
X56157904Y-59920190D01*
X57110285Y-59491619D02*
X57157904Y-59444000D01*
X57253142Y-59396380D01*
X57491238Y-59396380D01*
X57586476Y-59444000D01*
X57634095Y-59491619D01*
X57681714Y-59586857D01*
X57681714Y-59682095D01*
X57634095Y-59824952D01*
X57062666Y-60396380D01*
X57681714Y-60396380D01*
X62063333Y-60523380D02*
X61730000Y-60047190D01*
X61491904Y-60523380D02*
X61491904Y-59523380D01*
X61872857Y-59523380D01*
X61968095Y-59571000D01*
X62015714Y-59618619D01*
X62063333Y-59713857D01*
X62063333Y-59856714D01*
X62015714Y-59951952D01*
X61968095Y-59999571D01*
X61872857Y-60047190D01*
X61491904Y-60047190D01*
X62396666Y-59523380D02*
X63015714Y-59523380D01*
X62682380Y-59904333D01*
X62825238Y-59904333D01*
X62920476Y-59951952D01*
X62968095Y-59999571D01*
X63015714Y-60094809D01*
X63015714Y-60332904D01*
X62968095Y-60428142D01*
X62920476Y-60475761D01*
X62825238Y-60523380D01*
X62539523Y-60523380D01*
X62444285Y-60475761D01*
X62396666Y-60428142D01*
X93218115Y-76033380D02*
X93218115Y-76842904D01*
X93265734Y-76938142D01*
X93313353Y-76985761D01*
X93408591Y-77033380D01*
X93599067Y-77033380D01*
X93694305Y-76985761D01*
X93741924Y-76938142D01*
X93789543Y-76842904D01*
X93789543Y-76033380D01*
X94218115Y-76128619D02*
X94265734Y-76081000D01*
X94360972Y-76033380D01*
X94599067Y-76033380D01*
X94694305Y-76081000D01*
X94741924Y-76128619D01*
X94789543Y-76223857D01*
X94789543Y-76319095D01*
X94741924Y-76461952D01*
X94170496Y-77033380D01*
X94789543Y-77033380D01*
X146866666Y-69972380D02*
X146866666Y-70686666D01*
X146819047Y-70829523D01*
X146723809Y-70924761D01*
X146580952Y-70972380D01*
X146485714Y-70972380D01*
X147247619Y-69972380D02*
X147866666Y-69972380D01*
X147533333Y-70353333D01*
X147676190Y-70353333D01*
X147771428Y-70400952D01*
X147819047Y-70448571D01*
X147866666Y-70543809D01*
X147866666Y-70781904D01*
X147819047Y-70877142D01*
X147771428Y-70924761D01*
X147676190Y-70972380D01*
X147390476Y-70972380D01*
X147295238Y-70924761D01*
X147247619Y-70877142D01*
X93126666Y-81092380D02*
X93126666Y-81806666D01*
X93079047Y-81949523D01*
X92983809Y-82044761D01*
X92840952Y-82092380D01*
X92745714Y-82092380D01*
X93602857Y-82092380D02*
X93602857Y-81092380D01*
X93983809Y-81092380D01*
X94079047Y-81140000D01*
X94126666Y-81187619D01*
X94174285Y-81282857D01*
X94174285Y-81425714D01*
X94126666Y-81520952D01*
X94079047Y-81568571D01*
X93983809Y-81616190D01*
X93602857Y-81616190D01*
X95126666Y-82092380D02*
X94555238Y-82092380D01*
X94840952Y-82092380D02*
X94840952Y-81092380D01*
X94745714Y-81235238D01*
X94650476Y-81330476D01*
X94555238Y-81378095D01*
X93036666Y-83532380D02*
X93036666Y-84246666D01*
X92989047Y-84389523D01*
X92893809Y-84484761D01*
X92750952Y-84532380D01*
X92655714Y-84532380D01*
X93512857Y-84532380D02*
X93512857Y-83532380D01*
X93893809Y-83532380D01*
X93989047Y-83580000D01*
X94036666Y-83627619D01*
X94084285Y-83722857D01*
X94084285Y-83865714D01*
X94036666Y-83960952D01*
X93989047Y-84008571D01*
X93893809Y-84056190D01*
X93512857Y-84056190D01*
X94465238Y-83627619D02*
X94512857Y-83580000D01*
X94608095Y-83532380D01*
X94846190Y-83532380D01*
X94941428Y-83580000D01*
X94989047Y-83627619D01*
X95036666Y-83722857D01*
X95036666Y-83818095D01*
X94989047Y-83960952D01*
X94417619Y-84532380D01*
X95036666Y-84532380D01*
X93166666Y-86232380D02*
X93166666Y-86946666D01*
X93119047Y-87089523D01*
X93023809Y-87184761D01*
X92880952Y-87232380D01*
X92785714Y-87232380D01*
X93642857Y-87232380D02*
X93642857Y-86232380D01*
X94023809Y-86232380D01*
X94119047Y-86280000D01*
X94166666Y-86327619D01*
X94214285Y-86422857D01*
X94214285Y-86565714D01*
X94166666Y-86660952D01*
X94119047Y-86708571D01*
X94023809Y-86756190D01*
X93642857Y-86756190D01*
X94547619Y-86232380D02*
X95166666Y-86232380D01*
X94833333Y-86613333D01*
X94976190Y-86613333D01*
X95071428Y-86660952D01*
X95119047Y-86708571D01*
X95166666Y-86803809D01*
X95166666Y-87041904D01*
X95119047Y-87137142D01*
X95071428Y-87184761D01*
X94976190Y-87232380D01*
X94690476Y-87232380D01*
X94595238Y-87184761D01*
X94547619Y-87137142D01*
X93136666Y-88522380D02*
X93136666Y-89236666D01*
X93089047Y-89379523D01*
X92993809Y-89474761D01*
X92850952Y-89522380D01*
X92755714Y-89522380D01*
X93612857Y-89522380D02*
X93612857Y-88522380D01*
X93993809Y-88522380D01*
X94089047Y-88570000D01*
X94136666Y-88617619D01*
X94184285Y-88712857D01*
X94184285Y-88855714D01*
X94136666Y-88950952D01*
X94089047Y-88998571D01*
X93993809Y-89046190D01*
X93612857Y-89046190D01*
X95041428Y-88855714D02*
X95041428Y-89522380D01*
X94803333Y-88474761D02*
X94565238Y-89189047D01*
X95184285Y-89189047D01*
X93116666Y-69842380D02*
X93116666Y-70556666D01*
X93069047Y-70699523D01*
X92973809Y-70794761D01*
X92830952Y-70842380D01*
X92735714Y-70842380D01*
X93592857Y-70842380D02*
X93592857Y-69842380D01*
X93973809Y-69842380D01*
X94069047Y-69890000D01*
X94116666Y-69937619D01*
X94164285Y-70032857D01*
X94164285Y-70175714D01*
X94116666Y-70270952D01*
X94069047Y-70318571D01*
X93973809Y-70366190D01*
X93592857Y-70366190D01*
X95069047Y-69842380D02*
X94592857Y-69842380D01*
X94545238Y-70318571D01*
X94592857Y-70270952D01*
X94688095Y-70223333D01*
X94926190Y-70223333D01*
X95021428Y-70270952D01*
X95069047Y-70318571D01*
X95116666Y-70413809D01*
X95116666Y-70651904D01*
X95069047Y-70747142D01*
X95021428Y-70794761D01*
X94926190Y-70842380D01*
X94688095Y-70842380D01*
X94592857Y-70794761D01*
X94545238Y-70747142D01*
X93076666Y-72402380D02*
X93076666Y-73116666D01*
X93029047Y-73259523D01*
X92933809Y-73354761D01*
X92790952Y-73402380D01*
X92695714Y-73402380D01*
X93552857Y-73402380D02*
X93552857Y-72402380D01*
X93933809Y-72402380D01*
X94029047Y-72450000D01*
X94076666Y-72497619D01*
X94124285Y-72592857D01*
X94124285Y-72735714D01*
X94076666Y-72830952D01*
X94029047Y-72878571D01*
X93933809Y-72926190D01*
X93552857Y-72926190D01*
X94981428Y-72402380D02*
X94790952Y-72402380D01*
X94695714Y-72450000D01*
X94648095Y-72497619D01*
X94552857Y-72640476D01*
X94505238Y-72830952D01*
X94505238Y-73211904D01*
X94552857Y-73307142D01*
X94600476Y-73354761D01*
X94695714Y-73402380D01*
X94886190Y-73402380D01*
X94981428Y-73354761D01*
X95029047Y-73307142D01*
X95076666Y-73211904D01*
X95076666Y-72973809D01*
X95029047Y-72878571D01*
X94981428Y-72830952D01*
X94886190Y-72783333D01*
X94695714Y-72783333D01*
X94600476Y-72830952D01*
X94552857Y-72878571D01*
X94505238Y-72973809D01*
X63893333Y-66612380D02*
X63560000Y-66136190D01*
X63321904Y-66612380D02*
X63321904Y-65612380D01*
X63702857Y-65612380D01*
X63798095Y-65660000D01*
X63845714Y-65707619D01*
X63893333Y-65802857D01*
X63893333Y-65945714D01*
X63845714Y-66040952D01*
X63798095Y-66088571D01*
X63702857Y-66136190D01*
X63321904Y-66136190D01*
X64750476Y-65612380D02*
X64560000Y-65612380D01*
X64464761Y-65660000D01*
X64417142Y-65707619D01*
X64321904Y-65850476D01*
X64274285Y-66040952D01*
X64274285Y-66421904D01*
X64321904Y-66517142D01*
X64369523Y-66564761D01*
X64464761Y-66612380D01*
X64655238Y-66612380D01*
X64750476Y-66564761D01*
X64798095Y-66517142D01*
X64845714Y-66421904D01*
X64845714Y-66183809D01*
X64798095Y-66088571D01*
X64750476Y-66040952D01*
X64655238Y-65993333D01*
X64464761Y-65993333D01*
X64369523Y-66040952D01*
X64321904Y-66088571D01*
X64274285Y-66183809D01*
M02*
